<?xml version="1.0" encoding="UTF-8" standalone="no"?>
<svg width="199px" height="207px" viewBox="0 0 199 207" version="1.1" xmlns="http://www.w3.org/2000/svg" xmlns:xlink="http://www.w3.org/1999/xlink">
    <!-- Generator: Sketch 3.7.2 (28276) - http://www.bohemiancoding.com/sketch -->
    <title>Page 1 Copy</title>
    <desc>Created with Sketch.</desc>
    <defs>
        <ellipse id="path-1" cx="79.6223223" cy="79.4232665" rx="79.6223223" ry="79.4232665"></ellipse>
        <polygon id="path-3" points="34.3893091 0.483371708 0.485610551 0.483371708 0.485610551 34.304019 34.3893091 34.304019 34.3893091 0.483371708"></polygon>
    </defs>
    <g id="Page-2" stroke="none" stroke-width="1" fill="none" fill-rule="evenodd">
        <g id="2.1-Botler-new-step-1" transform="translate(-434.000000, -279.000000)">
            <g id="Group-19" transform="translate(370.000000, 158.000000)">
                <g id="Page-1-Copy" transform="translate(64.000000, 121.000000)">
                    <g id="Group-5" transform="translate(39.383084, 47.824763)">
                        <mask id="mask-2" fill="white">
                            <use xlink:href="#path-1"></use>
                        </mask>
                        <use id="Oval-17" fill="#CDE1FF" xlink:href="#path-1"></use>
                        <g id="body" mask="url(#mask-2)">
                            <g transform="translate(20.547696, 26.189751)">
                                <polygon id="Fill-21" fill="#FFFFFF" points="43.3027855 11.6687297 48.3386833 1.27823065 65.1615387 1.27823065 70.9371536 11.9733279 55.951034 96.0327496"></polygon>
                                <path d="M44.2508904,11.8127733 L56.0292864,90.3746247 L69.9794598,12.1270503 L64.614228,2.19202522 L48.9135051,2.19202522 L44.2508904,11.8127733 Z M55.951091,96.9471135 L55.9385341,96.9471135 C55.4893386,96.9408508 55.1109186,96.6112015 55.0447093,96.1676838 L42.3970316,11.8036638 C42.3696347,11.6226129 42.3976024,11.4370073 42.4775101,11.2707593 L47.5134079,0.880260303 C47.6663741,0.564844607 47.9871465,0.364436078 48.3387404,0.364436078 L65.1615958,0.364436078 C65.4983497,0.364436078 65.8088482,0.54890302 65.9680929,0.844391731 L71.7442785,11.5394889 C71.8418801,11.7216785 71.8755555,11.9306272 71.839597,12.1333131 L56.8529066,96.1927348 C56.775282,96.6299898 56.3945788,96.9471135 55.951091,96.9471135 L55.951091,96.9471135 Z" id="Fill-23" fill="#1F5081"></path>
                                <polygon id="Fill-25" fill="#123845" points="44.3916037 12.0757302 0.950305414 27.1701017 16.1129414 134.351472 63.2366109 134.351472"></polygon>
                                <path d="M16.9221357,133.334861 L62.1247978,133.334861 L43.6413367,13.4048529 L2.00307386,27.8724291 L16.9221357,133.334861 Z M16.1127653,135.36783 C15.6473333,135.36783 15.2517454,135.00125 15.1813144,134.504246 L0.0186784087,27.3235083 C-0.0511657378,26.8309358 0.221167741,26.3554577 0.661361941,26.2028742 L44.1026603,11.1078696 C44.3632552,11.0185987 44.6485011,11.0546869 44.8820975,11.2085367 C45.1156939,11.3611202 45.2765115,11.6169034 45.3211178,11.9087747 L64.166125,134.184517 C64.2119052,134.479554 64.1350179,134.780289 63.9554187,135.008215 C63.7764064,135.236773 63.5140507,135.36783 63.2370218,135.36783 L16.1127653,135.36783 Z" id="Fill-27" fill="#1F5081"></path>
                                <polygon id="Fill-29" fill="#1C5C7C" points="43.1500476 11.9733848 33.0428642 35.5777519 43.1500476 41.8353943 38.0964559 50.1791074 58.136738 88.4201292"></polygon>
                                <path d="M39.1475847,50.2109905 L56.0269463,82.4215375 L42.8227685,15.0654834 L34.1944484,35.2150807 L43.6332609,41.0588113 C44.0596256,41.3235555 44.1943272,41.8803724 43.9346271,42.3085179 L39.1475847,50.2109905 Z M58.1365097,89.3339237 C57.8037512,89.3339237 57.4864035,89.1517342 57.324305,88.8431506 L37.2845936,50.6021288 C37.1361936,50.3191656 37.1464674,49.9798375 37.3119905,49.7059838 L41.8981221,42.1354378 L32.559765,36.3543349 C32.1756373,36.1157804 32.0221003,35.6335474 32.2001804,35.2184968 L42.3079345,11.6146991 C42.4654669,11.2451959 42.85359,11.0203056 43.2462793,11.0647143 C43.6463886,11.1068456 43.9722979,11.4040424 44.0493518,11.797458 L59.0360422,88.2442023 C59.1233699,88.6905668 58.8693776,89.1323765 58.440159,89.2821136 C58.3402744,89.3168435 58.2375359,89.3339237 58.1365097,89.3339237 L58.1365097,89.3339237 Z" id="Fill-31" fill="#1F5081"></path>
                                <polygon id="Fill-33" fill="#123845" points="70.5647266 12.0757561 112.810219 27.1700936 98.064964 134.351223 52.2384648 134.351223"></polygon>
                                <path d="M53.3196732,133.334614 L97.2769028,133.334614 L111.78643,27.8724194 L71.2943411,13.4048758 L53.3196732,133.334614 Z M98.0645644,135.367579 L52.2380653,135.367579 C51.9686621,135.367579 51.7135283,135.236522 51.5394436,135.007963 C51.3647882,134.780038 51.2900174,134.479304 51.3345374,134.184268 L69.6607992,11.908801 C69.7041777,11.6169303 69.8605685,11.3611477 70.0877347,11.2085646 C70.3154717,11.0547152 70.591724,11.0179939 70.8457164,11.1078977 L113.090638,26.2028683 C113.518715,26.3554514 113.783552,26.8309285 113.71563,27.3234999 L98.9703754,134.503996 C98.9024538,135.000999 98.5171845,135.367579 98.0645644,135.367579 L98.0645644,135.367579 Z" id="Fill-35" fill="#1F5081"></path>
                                <polygon id="Fill-37" fill="#1C5C7C" points="70.9373819 11.9733848 81.0445653 35.5777519 70.9373819 41.8353943 75.9909736 50.1791074 55.9506915 88.4201292"></polygon>
                                <path d="M71.2648894,15.0654265 L58.0607116,82.4209112 L74.9400731,50.2109336 L70.1530307,42.3084609 C69.8933307,41.8803154 70.0280322,41.3234985 70.4543969,41.0593237 L79.8932094,35.2150238 L71.2648894,15.0654265 Z M55.9511481,89.3338668 C55.8495512,89.3338668 55.7473835,89.3167865 55.6474988,89.2820566 C55.2182803,89.1323196 54.9642879,88.6905099 55.0516156,88.2441454 L70.0383061,11.7974011 C70.1153599,11.4039854 70.4412692,11.1067887 70.8413785,11.0646574 C71.2363509,11.01911 71.622191,11.2451389 71.7797233,11.6146421 L81.8869067,35.2190092 C82.0649867,35.6340598 81.9120206,36.1157235 81.5278928,36.354278 L72.1895357,42.1353808 L76.7750965,49.7059269 C76.9406196,49.9797806 76.9514643,50.3191087 76.8030642,50.6020718 L56.7627821,88.8430936 C56.6012544,89.1516772 56.2839066,89.3338668 55.9511481,89.3338668 L55.9511481,89.3338668 Z" id="Fill-39" fill="#1F5081"></path>
                                <polygon id="Fill-41" fill="#FFFFFF" points="80.7390325 63.432317 99.0652943 63.432317 92.6509885 48.655604 89.4438356 56.0439605 86.6950105 52.0249724"></polygon>
                                <path d="M82.2495735,62.5182947 L97.6700487,62.5182947 L92.6507031,50.9555196 L90.2848643,56.4075425 C90.1513042,56.7127101 89.8636365,56.9227974 89.5303072,56.9535419 C89.2026856,56.9865638 88.8744932,56.83398 88.6867101,56.5589876 L86.8003175,53.801093 L82.2495735,62.5182947 Z M99.0650089,64.3464531 L80.7393179,64.3464531 C80.4185455,64.3464531 80.1217455,64.1796358 79.9556516,63.9063515 C79.7895577,63.6330671 79.7787131,63.2931697 79.9265424,63.0102065 L85.8819496,51.6028619 C86.0309204,51.3176214 86.3191589,51.1314464 86.6399313,51.1126581 C86.9766852,51.0944392 87.2700606,51.2436069 87.4515653,51.5094898 L89.2637579,54.1592094 L91.8093891,48.2921358 C91.9543646,47.9579318 92.2859815,47.7410123 92.6507031,47.7410123 C93.0159955,47.7410123 93.3459002,47.9573625 93.4920171,48.2921358 L99.9063229,63.0688488 C100.029038,63.3518119 99.9999291,63.6769065 99.8309814,63.9342492 C99.6620337,64.1910227 99.3737951,64.3464531 99.0650089,64.3464531 L99.0650089,64.3464531 Z" id="Fill-43" fill="#1F5081"></path>
                            </g>
                        </g>
                    </g>
                    <g id="Group-4" transform="translate(171.688111, 140.551390) rotate(-5.000000) translate(-171.688111, -140.551390) translate(162.688111, 99.051390)">
                        <path d="M6.1059762,81.4864495 L11.7548803,81.4864495 C14.3204885,81.4864495 16.4197781,79.3924081 16.4197781,76.833214 L16.4197781,5.81287216 C16.4197781,3.25310867 14.3204885,1.15906728 11.7548803,1.15906728 L6.1059762,1.15906728 C3.54036803,1.15906728 1.44107842,3.25310867 1.44107842,5.81287216 L1.44107842,76.833214 C1.44107842,79.3924081 3.54036803,81.4864495 6.1059762,81.4864495 L6.1059762,81.4864495 Z" id="Fill-1" fill="#123845"></path>
                        <path d="M8.92991456,2.07354506 C5.30552928,2.07354506 2.35750566,5.01476797 2.35750566,8.62952294 L2.35750566,74.0162216 C2.35750566,77.6309766 5.30552928,80.5721995 8.92991456,80.5721995 C12.5548706,80.5721995 15.503465,77.6309766 15.503465,74.0162216 L15.503465,8.62952294 C15.503465,5.01476797 12.5548706,2.07354506 8.92991456,2.07354506 M8.92991456,82.400358 C4.29526756,82.400358 0.524765327,78.6387126 0.524765327,74.0162216 L0.524765327,8.62952294 C0.524765327,4.0070319 4.29526756,0.24538658 8.92991456,0.24538658 C13.5651323,0.24538658 17.3362053,4.0070319 17.3362053,8.62952294 L17.3362053,74.0162216 C17.3362053,78.6387126 13.5651323,82.400358 8.92991456,82.400358" id="Fill-3" fill="#1F5081"></path>
                    </g>
                    <path d="M86.8750312,48.12919 L81.7095687,48.12919 C79.3631359,48.12919 77.4436387,46.2144915 77.4436387,43.8739248 L77.4436387,38.721376 C77.4436387,36.3808093 79.3631359,34.4661108 81.7095687,34.4661108 L86.8750312,34.4661108 C89.2214639,34.4661108 91.1409612,36.3808093 91.1409612,38.721376 L91.1409612,43.8739248 C91.1409612,46.2144915 89.2214639,48.12919 86.8750312,48.12919" id="Fill-5" fill="#C9C8B1"></path>
                    <path d="M84.292357,35.3797346 C81.0212779,35.3797346 78.3597805,38.0345782 78.3597805,41.2974796 C78.3597805,44.560381 81.0212779,47.2146553 84.292357,47.2146553 C87.5634361,47.2146553 90.2249335,44.560381 90.2249335,41.2974796 C90.2249335,38.0345782 87.5634361,35.3797346 84.292357,35.3797346 M84.292357,49.0428138 C80.0104454,49.0428138 76.527611,45.5686864 76.527611,41.2974796 C76.527611,37.0268422 80.0104454,33.5515761 84.292357,33.5515761 C88.5742686,33.5515761 92.057103,37.0268422 92.057103,41.2974796 C92.057103,45.5686864 88.5742686,49.0428138 84.292357,49.0428138" id="Fill-7" fill="#1F5081"></path>
                    <path d="M150.101262,48.12919 L144.9358,48.12919 C142.589367,48.12919 140.66987,46.2144915 140.66987,43.8739248 L140.66987,38.721376 C140.66987,36.3808093 142.589367,34.4661108 144.9358,34.4661108 L150.101262,34.4661108 C152.447695,34.4661108 154.367192,36.3808093 154.367192,38.721376 L154.367192,43.8739248 C154.367192,46.2144915 152.447695,48.12919 150.101262,48.12919" id="Fill-9" fill="#C9C8B1"></path>
                    <path d="M147.518588,35.3797346 C144.246938,35.3797346 141.586012,38.0345782 141.586012,41.2974796 C141.586012,44.560381 144.246938,47.2146553 147.518588,47.2146553 C150.789096,47.2146553 153.450594,44.560381 153.450594,41.2974796 C153.450594,38.0345782 150.789096,35.3797346 147.518588,35.3797346 M147.518588,49.0428138 C143.236677,49.0428138 139.753842,45.5686864 139.753842,41.2974796 C139.753842,37.0268422 143.236677,33.5515761 147.518588,33.5515761 C151.8005,33.5515761 155.283334,37.0268422 155.283334,41.2974796 C155.283334,45.5686864 151.8005,49.0428138 147.518588,49.0428138" id="Fill-11" fill="#1F5081"></path>
                    <path d="M37.7027392,79.4458694 C38.2854947,80.4906127 38.6199655,81.6913559 38.6199655,82.9712376 C38.6199655,86.9839629 35.3591603,90.2366161 31.3363781,90.2366161 C27.3141665,90.2366161 24.0527906,86.9839629 24.0527906,82.9712376 C24.0527906,81.4789911 24.5054106,80.092073 25.2793739,78.9385853 L20.4255514,75.7069978 C19.0317327,77.7856669 18.2166741,80.2828027 18.2166741,82.9712376 C18.2166741,90.1990395 24.0904613,96.0581423 31.3363781,96.0581423 C38.5822948,96.0581423 44.456082,90.1990395 44.456082,82.9712376 C44.456082,80.6654008 43.8533496,78.502469 42.8042755,76.6207923 L37.7027392,79.4458694 Z" id="Fill-13" fill="#E9E9DA"></path>
                    <path d="M20.7068836,76.9931423 C19.6749327,78.81333 19.1332726,80.861824 19.1332726,82.9706683 C19.1332726,89.6832153 24.6075213,95.1443477 31.336321,95.1443477 C38.0651207,95.1443477 43.5399401,89.6832153 43.5399401,82.9706683 C43.5399401,81.2153856 43.1541001,79.4720591 42.4178076,77.8801778 L38.9041516,79.8261901 C39.3191009,80.8196926 39.5359933,81.8917644 39.5359933,82.9706683 C39.5359933,87.4815682 35.8579557,91.15098 31.336321,91.15098 C26.8152571,91.15098 23.1366487,87.4815682 23.1366487,82.9706683 C23.1366487,81.6554873 23.4505718,80.3744669 24.0498796,79.2192711 L20.7068836,76.9931423 Z M31.336321,96.9725062 C23.5972596,96.9725062 17.3005322,90.6909514 17.3005322,82.9706683 C17.3005322,80.1922773 18.1178739,77.5044118 19.6640881,75.1991443 C19.9443358,74.7801083 20.5139636,74.6679479 20.9340498,74.9463563 L25.7878723,78.1773745 C25.9899246,78.3123086 26.1303339,78.522396 26.1777077,78.7598118 C26.2256523,78.9977969 26.1759954,79.2443222 26.0412939,79.4458694 C25.3398183,80.4923207 24.969389,81.7107135 24.969389,82.9706683 C24.969389,86.4732628 27.8260896,89.3228215 31.336321,89.3228215 C34.8471232,89.3228215 37.7038237,86.4732628 37.7038237,82.9706683 C37.7038237,81.8963191 37.4264298,80.8305101 36.9018928,79.8905258 C36.7837435,79.6781611 36.7546343,79.4282198 36.8219851,79.1953587 C36.8881943,78.9624977 37.0451559,78.7649359 37.2580528,78.647082 L42.3595892,75.8220049 C42.8025062,75.5749103 43.3590063,75.7366036 43.6050078,76.1761359 C44.7613865,78.249681 45.3726805,80.5993571 45.3726805,82.9706683 C45.3726805,90.6909514 39.0759532,96.9725062 31.336321,96.9725062 L31.336321,96.9725062 Z" id="Fill-15" fill="#1F5081"></path>
                    <path d="M44.8529379,177.51715 L39.4745785,175.794889 C37.0316857,175.012612 35.6743962,172.378834 36.4586333,169.941479 L58.2214973,102.320681 C59.0057344,99.8833262 61.6461133,98.5299993 64.0890061,99.3122758 L69.4673655,101.034537 C71.9102583,101.816813 73.2675477,104.450591 72.4833107,106.887377 L50.7210175,174.508744 C49.9362096,176.94553 47.2958307,178.299426 44.8529379,177.51715" id="Fill-17" fill="#123845" transform="translate(54.470972, 138.414687) rotate(-358.000000) translate(-54.470972, -138.414687) "></path>
                    <path d="M64.4985331,100.729369 C63.4654406,100.729369 62.4380558,100.975894 61.4882956,101.463251 C59.9221045,102.266594 58.7645843,103.623337 58.2303442,105.2824 L38.1946282,167.538285 C37.6603881,169.197918 37.8099297,170.973128 38.6152852,172.535403 C39.42007,174.098248 40.7796426,175.252305 42.4434352,175.78521 C44.1083693,176.316976 45.8868866,176.170085 47.4536484,175.366743 C49.0204102,174.563401 50.1773597,173.206658 50.7115998,171.547025 L70.7478865,109.290571 C71.8557498,105.848327 69.9488094,102.14874 66.497938,101.043646 C65.8432656,100.833559 65.1697578,100.729369 64.4985331,100.729369 M44.4462648,177.928215 C43.5866861,177.928215 42.7236829,177.795558 41.8835105,177.52569 C39.7539701,176.843617 38.0136944,175.368451 36.9845972,173.371767 C35.9560709,171.373945 35.7660047,169.103977 36.4497864,166.97976 L56.4855024,104.723875 C57.169284,102.599659 58.6487181,100.864303 60.650977,99.8377788 C62.652665,98.8101158 64.9294639,98.6216634 67.0584335,99.3031663 C69.1879739,99.9846692 70.9282496,101.460405 71.9573467,103.457089 C72.9858731,105.454911 73.17651,107.724879 72.4927284,109.849096 L52.4564416,172.106119 C51.77266,174.230336 50.2937966,175.965691 48.2915378,176.992216 C47.0792237,177.613938 45.7664542,177.928215 44.4462648,177.928215" id="Fill-19" fill="#1F5081" transform="translate(54.471159, 138.414554) rotate(-358.000000) translate(-54.471159, -138.414554) "></path>
                    <path d="M103.233566,87.9706333 C103.233566,85.9597159 104.662201,85.1370161 106.407614,86.1424748 L113.058789,89.9730106 C114.804202,90.9784693 114.804202,92.6232995 113.058789,93.6287582 L106.407614,97.459294 C104.662201,98.4647527 103.233566,97.6420529 103.233566,95.6311355 L103.233566,87.9706333 Z" id="Fill-45" fill="#FF3E24"></path>
                    <path d="M104.999983,86.6270422 C104.856149,86.6270422 104.728867,86.656648 104.624416,86.7169983 C104.322479,86.8900784 104.150107,87.3472603 104.150107,87.9706903 L104.150107,95.6306231 C104.150107,96.254053 104.322479,96.7106656 104.624416,96.8848844 C104.926353,97.0573952 105.408653,96.9793952 105.949172,96.6668263 L112.600347,92.8368599 C113.141436,92.5254296 113.451364,92.1479555 113.451935,91.801226 C113.451935,91.4533578 113.141436,91.0758838 112.600347,90.7644535 L105.949172,86.9339177 C105.597007,86.7306625 105.268815,86.6270422 104.999983,86.6270422 M104.991421,98.7995829 C104.529098,98.7995829 104.093601,98.6896998 103.708332,98.4682256 C102.82421,97.9586642 102.317367,96.9253077 102.317367,95.6306231 L102.317367,87.9706903 C102.317367,86.6771443 102.82421,85.6426491 103.70719,85.133657 C104.591312,84.6258036 105.741983,84.7026648 106.865828,85.3505765 L113.516432,89.1805429 C114.640277,89.8278852 115.284675,90.7832418 115.284675,91.801226 C115.284105,92.8192102 114.639706,93.7734281 113.516432,94.4202011 L106.865828,98.2507368 C106.232274,98.6156853 105.589587,98.7995829 104.991421,98.7995829" id="Fill-47" fill="#1F5081"></path>
                    <path d="M130.861712,87.9706333 C130.861712,85.9597159 129.433077,85.1370161 127.687664,86.1424748 L121.036489,89.9730106 C119.291076,90.9784693 119.291076,92.6232995 121.036489,93.6287582 L127.687664,97.459294 C129.433077,98.4647527 130.861712,97.6420529 130.861712,95.6311355 L130.861712,87.9706333 Z" id="Fill-49" fill="#FF3E24"></path>
                    <path d="M129.095467,86.6270422 C128.826064,86.6270422 128.498442,86.7306625 128.145707,86.9339177 L121.494532,90.7644535 C120.953442,91.0758838 120.642944,91.4533578 120.642944,91.801226 C120.643514,92.1479555 120.953442,92.5254296 121.494532,92.8368599 L128.145707,96.6668263 C128.686225,96.9793952 129.169096,97.0573952 129.471033,96.8848844 C129.772399,96.7106656 129.945342,96.254053 129.945342,95.6306231 L129.945342,87.9706903 C129.945342,87.3472603 129.77297,86.8900784 129.471033,86.7169983 C129.366011,86.656648 129.239301,86.6270422 129.095467,86.6270422 M129.103458,98.7995829 C128.505291,98.7995829 127.862605,98.6156853 127.229051,98.2507368 L120.578447,94.4202011 C119.455173,93.7734281 118.810774,92.8192102 118.810774,91.801226 C118.810774,90.7832418 119.454602,89.8278852 120.578447,89.1805429 L127.229051,85.3505765 C128.353467,84.7055115 129.504708,84.6269423 130.387689,85.133657 C131.271239,85.6426491 131.778083,86.6771443 131.778083,87.9706903 L131.778083,95.6306231 C131.778083,96.9253077 131.271239,97.9586642 130.387118,98.4676563 C130.001848,98.6896998 129.566351,98.7995829 129.103458,98.7995829" id="Fill-51" fill="#1F5081"></path>
                    <path d="M118.77864,96.6818 L115.323202,96.6818 C113.753587,96.6818 112.469356,95.4007795 112.469356,93.8350879 L112.469356,90.3882889 C112.469356,88.8225973 113.753587,87.5415769 115.323202,87.5415769 L118.77864,87.5415769 C120.348255,87.5415769 121.632486,88.8225973 121.632486,90.3882889 L121.632486,93.8350879 C121.632486,95.4007795 120.348255,96.6818 118.77864,96.6818" id="Fill-53" fill="#FF3E24"></path>
                    <path d="M117.050864,88.4551437 C115.02977,88.4551437 113.385383,90.0948499 113.385383,92.1114607 C113.385383,94.1275022 115.02977,95.7672083 117.050864,95.7672083 C119.071958,95.7672083 120.716345,94.1275022 120.716345,92.1114607 C120.716345,90.0948499 119.071958,88.4551437 117.050864,88.4551437 M117.050864,97.5953668 C114.018937,97.5953668 111.553214,95.1352382 111.553214,92.1114607 C111.553214,89.0871138 114.018937,86.6269852 117.050864,86.6269852 C120.082791,86.6269852 122.548514,89.0871138 122.548514,92.1114607 C122.548514,95.1352382 120.082791,97.5953668 117.050864,97.5953668" id="Fill-55" fill="#1F5081"></path>
                    <path d="M42.7332718,177.23783 L42.7332718,177.23783 C38.6522711,177.796355 34.8555135,174.922315 34.2955888,170.851516 L25.3875917,106.072306 C24.827667,102.001508 27.7083399,98.214242 31.7893406,97.6557171 L31.7893406,97.6557171 C35.8703413,97.0971922 39.6676697,99.9712327 40.2275945,104.042031 L49.1355915,168.821241 C49.6955162,172.892039 46.8142726,176.679305 42.7332718,177.23783" id="Fill-57" fill="#123845"></path>
                    <path d="M32.8114172,98.5005643 C32.5134757,98.5005643 32.2138218,98.5199219 31.9141679,98.5614839 C30.1830245,98.7988997 28.642518,99.6995994 27.578604,101.099043 C26.5135484,102.499625 26.0575037,104.221317 26.2949437,105.948702 L35.2035115,170.727912 C35.4409516,172.454158 36.3444794,173.990244 37.7480012,175.052637 C39.151523,176.114461 40.8775295,176.570504 42.6092437,176.332519 L42.6092437,176.33138 C44.3403871,176.095103 45.8803227,175.194403 46.9448075,173.79496 C48.0092923,172.394377 48.465337,170.672686 48.227897,168.945301 L39.3199,104.166091 C39.0818892,102.439844 38.1789321,100.903189 36.7754103,99.8413657 C35.6150362,98.9628703 34.2332037,98.5005643 32.8114172,98.5005643 M41.7074281,178.222166 C39.8878155,178.222166 38.1224259,177.63005 36.640138,176.509015 C34.8467807,175.151703 33.6915436,173.186902 33.3878943,170.976145 L24.4793265,106.196366 C24.1756772,103.985609 24.7572912,101.783393 26.1180053,99.9945188 C27.4792901,98.2050756 29.4490151,97.0538652 31.6653124,96.7504057 C33.881039,96.4526396 36.0893455,97.0276755 37.8827028,98.3844184 C39.67606,99.7423001 40.8312972,101.707101 41.1355172,103.917857 L50.0435143,168.697068 C50.3471635,170.907824 49.7655496,173.110041 48.4048355,174.898915 C47.0441214,176.688358 45.0738257,177.840137 42.8580991,178.143597 L42.8580991,178.142458 C42.4734006,178.195407 42.0892728,178.222166 41.7074281,178.222166" id="Fill-59" fill="#1F5081"></path>
                    <path d="M40.6637193,107.214578 C40.6637193,107.214578 40.3126962,102.942232 25.318015,105.684185 L23.8385808,96.239364 C23.8385808,96.239364 38.0102127,91.7455443 39.4006068,98.6767188 C40.7910009,105.607893 40.6637193,107.214578 40.6637193,107.214578" id="Fill-61" fill="#FFFFFF"></path>
                    <path d="M33.8897147,103.844583 C36.3240459,103.844583 38.2115801,104.169677 39.5414726,104.819297 C39.3708126,103.545678 39.0608849,101.641797 38.5021017,98.8560048 C38.3034739,97.8659183 37.78122,97.133744 36.9050891,96.6179197 C33.9587778,94.8865495 27.7956105,96.0736284 24.8681346,96.8883574 L26.0793071,104.621166 C29.1100923,104.103634 31.7179374,103.844583 33.8897147,103.844583 L33.8897147,103.844583 Z M40.6636052,108.128315 C40.2064189,108.128315 39.8222911,107.792403 39.7572234,107.347177 C39.7035711,107.202565 38.350277,104.231166 25.4828531,106.58312 C25.2425592,106.627529 24.9885669,106.572302 24.7876561,106.429398 C24.5861745,106.286493 24.4509022,106.069004 24.4126606,105.825325 L22.9337973,96.380504 C22.8635927,95.9352782 23.1301419,95.5048553 23.5610728,95.3682131 C23.9549036,95.2435272 33.2481699,92.3461436 37.8354431,95.043688 C39.1676187,95.8271031 39.9963758,96.989131 40.2988835,98.4967497 C41.6744376,105.355618 41.5911053,107.108623 41.5774069,107.286258 C41.5397361,107.761089 41.1430514,108.127177 40.6653175,108.128315 L40.6636052,108.128315 Z" id="Fill-63" fill="#1F5081"></path>
                    <path d="M36.3112607,100.224761 C36.3112607,100.981986 35.6959713,101.595737 34.9368481,101.595737 C34.1777249,101.595737 33.5624355,100.981986 33.5624355,100.224761 C33.5624355,99.4675355 34.1777249,98.8537843 34.9368481,98.8537843 C35.6959713,98.8537843 36.3112607,99.4675355 36.3112607,100.224761" id="Fill-65" fill="#1B717F"></path>
                    <path d="M43.5397118,170.199619 C43.5397118,170.956845 42.9244225,171.570596 42.1652993,171.570596 C41.4061761,171.570596 40.7908867,170.956845 40.7908867,170.199619 C40.7908867,169.442394 41.4061761,168.828643 42.1652993,168.828643 C42.9244225,168.828643 43.5397118,169.442394 43.5397118,170.199619" id="Fill-67" fill="#1B717F"></path>
                    <path d="M82.830103,182.095175 C83.9482402,182.525028 85.1868096,182.68786 86.4579129,182.509087 C90.4407414,181.949423 93.2152511,178.274887 92.6541848,174.301447 C92.0931186,170.328575 88.4088025,167.561002 84.4259741,168.120665 C82.9442569,168.329045 81.6309167,168.969555 80.593258,169.894736 L76.7086019,165.551223 C78.5773007,163.884758 80.9431396,162.73127 83.6114863,162.356073 C90.7866276,161.347768 97.4223919,166.332361 98.4332244,173.489564 C99.4440569,180.646768 94.4469713,187.265943 87.27183,188.273679 C84.983045,188.595357 82.7513369,188.302146 80.7376627,187.52784 L82.830103,182.095175 Z" id="Fill-69" fill="#E9E9DA"></path>
                    <path d="M81.9335386,186.971422 C83.6173081,187.476429 85.3998207,187.617056 87.1435211,187.368823 C90.3712217,186.915057 93.2290637,185.235497 95.1902272,182.637587 C97.1508198,180.040247 97.9801477,176.836558 97.5258153,173.616926 C96.5874705,166.970992 90.4020432,162.330852 83.7400235,163.261157 C81.6458708,163.554938 79.6875612,164.37593 78.0243394,165.649549 L80.7006768,168.641443 C81.7634493,167.888203 82.9906034,167.399138 84.2970944,167.21524 C88.7742091,166.580423 92.9305514,169.707252 93.5612515,174.174312 C94.1919516,178.639665 91.0629941,182.785047 86.5858794,183.41417 C85.5139746,183.563338 84.419239,183.500141 83.3753019,183.228565 L81.9335386,186.971422 Z M85.4500484,189.315405 C83.7320327,189.315405 82.0180124,189.000558 80.4084429,188.381683 C79.9364167,188.199493 79.7006889,187.671144 79.8821936,187.200867 L81.974634,181.767632 C82.0619617,181.541034 82.2360463,181.358844 82.4580756,181.259779 C82.6801049,181.162421 82.9318141,181.15502 83.1595511,181.24156 C84.1658174,181.628143 85.2616946,181.753399 86.3301748,181.604231 C89.80616,181.115735 92.2364958,177.897242 91.746205,174.429378 C91.2564849,170.961513 88.0322089,168.540669 84.5533698,169.025749 C83.3016727,169.202245 82.1435817,169.737996 81.2040954,170.576068 C81.0237322,170.738331 80.7874337,170.824302 80.5420029,170.807221 C80.2988552,170.793557 80.071689,170.684813 79.9095905,170.503762 L76.0249344,166.160249 C75.6881805,165.783344 75.7207143,165.206031 76.0979929,164.870688 C78.1721686,163.020895 80.7257907,161.83837 83.4837481,161.450648 C91.1526049,160.373452 98.2609662,165.7173 99.340291,173.361861 C99.8636865,177.065433 98.9093601,180.750217 96.6542505,183.737557 C94.3985701,186.724897 91.1120802,188.657814 87.3997965,189.178762 C86.7525441,189.269857 86.1012963,189.315405 85.4500484,189.315405 L85.4500484,189.315405 Z" id="Fill-71" fill="#1F5081"></path>
                    <path d="M180.61031,173.42261 L180.61031,173.42261 C180.59547,169.313665 177.213091,165.964224 173.093849,165.979027 L107.544415,166.216443 C103.425173,166.231246 100.067337,169.605169 100.082177,173.714113 L100.082177,173.714113 C100.097017,177.823057 103.479967,181.173068 107.599209,181.157696 L173.148072,180.92028 C177.267314,180.905477 180.62515,177.531554 180.61031,173.42261" id="Fill-73" fill="#123845"></path>
                    <path d="M173.121017,166.893106 L173.097045,166.893106 L107.547612,167.130522 C105.800487,167.136785 104.154388,167.827397 102.912965,169.074826 C101.672112,170.321686 100.992326,171.968224 100.998604,173.710982 C101.004883,175.454308 101.696655,177.095722 102.947211,178.333473 C104.191488,179.566099 105.83245,180.243616 107.571013,180.243616 L107.595556,180.243616 L173.144419,180.006201 C174.892115,179.999938 176.537643,179.309326 177.778495,178.062466 C179.019919,176.815606 179.699705,175.168498 179.693426,173.42631 C179.687148,171.682984 178.995946,170.04157 177.745391,168.80325 C176.501684,167.570624 174.859581,166.893106 173.121017,166.893106 L173.121017,166.893106 Z M107.571013,182.071775 C105.345583,182.071775 103.246294,181.205805 101.65613,179.631573 C100.057976,178.048801 99.1738547,175.948497 99.1658639,173.717814 C99.1493116,169.094184 102.906115,165.319444 107.540762,165.302364 L173.089625,165.064948 L173.122159,165.064948 C175.347589,165.064948 177.446878,165.930918 179.037042,167.505719 C180.634054,169.087921 181.518176,171.188225 181.526167,173.418909 C181.534157,175.650731 180.665447,177.757298 179.079849,179.350318 C177.493111,180.943908 175.388684,181.826388 173.151268,181.834359 L107.602405,182.071775 L107.571013,182.071775 Z" id="Fill-75" fill="#1F5081"></path>
                    <path d="M110.809216,181.146252 C110.809216,181.146252 106.518743,181.395624 107.149443,166.202152 L97.5667965,166.058678 C97.5667965,166.058678 95.0828084,180.683377 102.157494,181.089318 C109.23218,181.495828 110.809216,181.146252 110.809216,181.146252" id="Fill-77" fill="#FFFFFF"></path>
                    <path d="M98.3597663,166.984144 C98.0663909,169.268346 97.4396862,176.000251 99.7667128,178.911868 C100.400267,179.704962 101.199344,180.118874 102.210176,180.176946 C105.053178,180.340348 106.984091,180.384756 108.275171,180.372231 C106.703843,178.057854 106.006934,173.605596 106.200425,167.101998 L98.3597663,166.984144 Z M107.928714,182.200389 C106.591402,182.200389 104.714712,182.151995 102.104584,182.00112 C100.56579,181.912871 99.2963988,181.256989 98.3323694,180.049983 C95.012775,175.894353 96.5949476,166.311751 96.6634399,165.90581 C96.7382107,165.465708 97.1206261,165.144599 97.5669677,165.144599 L97.5806662,165.144599 L107.163313,165.288073 C107.410456,165.291489 107.645613,165.395109 107.815131,165.574452 C107.98522,165.753226 108.074831,165.993488 108.064557,166.239444 C107.513765,179.527896 110.787127,180.229326 110.820232,180.233311 C111.293399,180.204844 111.682664,180.548158 111.748873,181.019573 C111.814512,181.491558 111.474904,181.935076 111.008586,182.038696 C110.898998,182.063178 110.177545,182.200389 107.928714,182.200389 L107.928714,182.200389 Z" id="Fill-79" fill="#1F5081"></path>
                    <path d="M103.263303,177.822203 C104.015006,177.716305 104.538401,177.022846 104.432809,176.273022 C104.326646,175.523768 103.631449,175.001112 102.879746,175.107009 C102.128043,175.212338 101.604647,175.905797 101.71081,176.655621 C101.816403,177.405445 102.5116,177.928101 103.263303,177.822203" id="Fill-81" fill="#1B717F"></path>
                    <path d="M173.735907,175.200951 C174.48761,175.095053 175.011006,174.401594 174.905414,173.65177 C174.799251,172.902515 174.104053,172.379859 173.35235,172.485757 C172.600647,172.591085 172.077252,173.284544 172.183415,174.034368 C172.289007,174.784192 172.984204,175.306848 173.735907,175.200951" id="Fill-83" fill="#1B717F"></path>
                    <path d="M0.916313091,70.2655077 C1.96082098,73.1850955 4.75816149,75.2928012 8.0320944,75.2928012 L56.1393878,75.2928012 C59.4133207,75.2928012 62.2106613,73.1850955 63.2551691,70.2655077 L0.916313091,70.2655077 Z" id="Fill-85" fill="#FFFFFF"></path>
                    <path d="M2.36207182,71.1795869 C3.55326742,73.1341394 5.6942232,74.3787219 8.0320944,74.3787219 L56.1393878,74.3787219 C58.4766883,74.3787219 60.6182148,73.1341394 61.8094104,71.1795869 L2.36207182,71.1795869 Z M56.1393878,76.2068804 L8.0320944,76.2068804 C4.46592759,76.2068804 1.25934546,73.9420363 0.0533098559,70.5726679 C-0.0465747778,70.2931208 -0.00433784695,69.9816905 0.167463723,69.7391506 C0.339265293,69.4960414 0.618371498,69.3514284 0.916313091,69.3514284 L63.2551691,69.3514284 C63.5531107,69.3514284 63.8322169,69.4960414 64.0040185,69.7391506 C64.1758201,69.9816905 64.218057,70.2931208 64.1181724,70.5726679 C62.9121368,73.9420363 59.7055546,76.2068804 56.1393878,76.2068804 L56.1393878,76.2068804 Z" id="Fill-87" fill="#1F5081"></path>
                    <path d="M116.234607,1.48467421 L116.234607,1.48467421 C98.5955512,1.48467421 84.1630777,15.8804971 84.1630777,33.475455 L84.1630777,46.729177 L84.1630777,70.2657923 L116.234607,81.4624802 L116.234607,81.4624802 L148.305565,70.2657923 L148.305565,46.729177 L148.305565,33.475455 C148.305565,15.8804971 133.873662,1.48467421 116.234607,1.48467421" id="Fill-89" fill="#E9E9DA"></path>
                    <path d="M148.306022,70.2655646 L148.315154,70.2655646 L148.306022,70.2655646 Z M85.0796191,69.6165142 L116.234493,80.493801 L147.389937,69.6165142 L147.389937,33.4757966 C147.389937,16.3397287 133.413508,2.39881038 116.234493,2.39881038 C99.0560479,2.39881038 85.0796191,16.3397287 85.0796191,33.4757966 L85.0796191,69.6165142 Z M116.234493,82.3766164 C116.132325,82.3766164 116.029586,82.3595361 115.931985,82.3253756 L83.8604558,71.1286877 C83.4934512,71.0000163 83.2474496,70.6538561 83.2474496,70.2655646 L83.2474496,33.4757966 C83.2474496,15.3319926 98.0452154,0.5706519 116.234493,0.5706519 C134.424341,0.5706519 149.222106,15.3319926 149.222106,33.4757966 L149.222106,70.2655646 C149.222106,70.6538561 148.976105,71.0000163 148.608529,71.1286877 L116.537571,82.3253756 C116.439399,82.3595361 116.337231,82.3766164 116.234493,82.3766164 L116.234493,82.3766164 Z" id="Fill-91" fill="#1F5081"></path>
                    <path d="M102.790135,41.9020074 C99.2970267,41.9031461 96.0875907,39.5830757 95.1258444,36.0634009 C94.9928551,35.5771825 95.2805229,35.0744532 95.7685306,34.941227 C96.25768,34.8057235 96.7605277,35.0960882 96.8940878,35.5834453 C97.7799218,38.823573 101.145178,40.7416875 104.393997,39.8586375 C105.968749,39.4310613 107.281519,38.4170625 108.091441,37.0033853 C108.900792,35.5902774 109.110264,33.9477245 108.681616,32.3769088 C108.548627,31.8906904 108.836295,31.387961 109.324302,31.2547349 C109.813452,31.1186621 110.316299,31.4084574 110.449289,31.8969532 C111.007501,33.9380457 110.735244,36.0742184 109.682175,37.9109171 C108.629676,39.748185 106.923076,41.0667821 104.876297,41.6224602 C104.179958,41.8120513 103.479054,41.9020074 102.790135,41.9020074" id="Fill-93" fill="#1F5081"></path>
                    <path d="M130.523646,41.9020074 C129.834156,41.9020074 129.133822,41.8120513 128.437484,41.6224602 C126.390705,41.0667821 124.684105,39.748185 123.631606,37.9109171 C122.579107,36.0742184 122.30685,33.9380457 122.864492,31.8969532 C122.998052,31.4095961 123.502041,31.1209395 123.990049,31.2547349 C124.478057,31.387961 124.765725,31.8906904 124.632735,32.3769088 C124.204088,33.9477245 124.412989,35.5902774 125.22234,37.0045239 C126.032262,38.4170625 127.345031,39.4310613 128.919784,39.8586375 C132.16632,40.7416875 135.533859,38.8241423 136.420264,35.5834453 C136.553824,35.0960882 137.056672,34.8085703 137.54525,34.941227 C138.033829,35.0744532 138.321496,35.5771825 138.188507,36.0634009 C137.226761,39.5830757 134.016754,41.9020074 130.523646,41.9020074" id="Fill-95" fill="#1F5081"></path>
                    <path d="M84.1633061,33.4757397 C84.1633061,33.4757397 116.234835,31.2666911 116.234835,1.48495888 C116.234835,1.48495888 84.1633061,1.71326519 84.1633061,33.4757397" id="Fill-97" fill="#1C5C7C"></path>
                    <g id="Group-101" transform="translate(82.761554, 0.085971)">
                        <mask id="mask-4" fill="white">
                            <use xlink:href="#path-3"></use>
                        </mask>
                        <g id="Clip-100"></g>
                        <path d="M32.5457241,2.35650824 C30.2301129,2.51250806 23.9693441,3.21166055 17.7941906,6.32767157 C7.80001958,11.3709067 2.60088171,20.130809 2.3291955,32.3711015 C4.69160978,32.0716274 10.9158494,31.0166359 17.0578982,27.7286835 C27.0663385,22.3717407 32.2734671,13.839006 32.5457241,2.35650824 M1.40169533,34.304019 C1.17053375,34.304019 0.946792174,34.2163403 0.776702912,34.0586324 C0.591202878,33.884983 0.485610551,33.6435818 0.485610551,33.3896551 C0.485610551,1.09370677 33.1370412,0.487357105 33.4663751,0.484510393 C33.6986782,0.468568805 33.9452505,0.578451891 34.1187644,0.749823957 C34.2922783,0.922334708 34.3893091,1.15519575 34.3893091,1.39887431 C34.3893091,31.6833359 1.79438464,34.2789679 1.46505073,34.302311 C1.44393226,34.3028803 1.4228138,34.304019 1.40169533,34.304019" id="Fill-99" fill="#1F5081" mask="url(#mask-4)"></path>
                    </g>
                    <path d="M148.30585,33.4757397 C148.30585,33.4757397 116.234321,31.2666911 116.234321,1.48495888 C116.234321,1.48495888 148.30585,1.71326519 148.30585,33.4757397" id="Fill-102" fill="#1C5C7C"></path>
                    <path d="M117.162735,2.441568 C117.774599,27.2711599 142.12419,31.7746584 147.378122,32.4555919 C147.105865,20.1919564 141.888462,11.4240832 131.858333,6.38597223 C125.688316,3.2859028 119.468072,2.59529045 117.162735,2.441568 M148.306193,34.3896481 C148.285645,34.3896481 148.263956,34.3890788 148.242267,34.3879401 C147.914074,34.364597 115.318579,31.768965 115.318579,1.48450341 C115.318579,1.24082485 115.416181,1.00796381 115.589124,0.836022398 C115.762638,0.664650332 116.014918,0.596329242 116.241513,0.570708834 C116.571418,0.573555546 149.222278,1.17933587 149.222278,33.4758535 C149.222278,33.7292109 149.116685,33.9711814 148.931756,34.1442615 C148.760525,34.3025387 148.537925,34.3896481 148.306193,34.3896481" id="Fill-104" fill="#1F5081"></path>
                    <polygon id="Fill-106" fill="#FFFFFF" points="115.302826 195.025397 166.326751 195.025397 166.326751 165.268715 115.302826 165.268715"></polygon>
                    <path d="M116.219481,194.680944 L165.410095,194.680944 L165.410095,166.751852 L116.219481,166.751852 L116.219481,194.680944 Z M166.32618,196.509103 L115.303397,196.509103 C114.797124,196.509103 114.386741,196.100315 114.386741,195.595308 L114.386741,165.838058 C114.386741,165.333051 114.797124,164.924263 115.303397,164.924263 L166.32618,164.924263 C166.833023,164.924263 167.242835,165.333051 167.242835,165.838058 L167.242835,195.595308 C167.242835,196.100315 166.833023,196.509103 166.32618,196.509103 L166.32618,196.509103 Z" id="Fill-108" fill="#1F5081"></path>
                    <polygon id="Fill-109" fill="#C9C8B1" points="132.786689 75.2926873 127.348399 56.5550592 127.1121 56.5550592 105.356656 56.5550592 105.120358 56.5550592 99.6826384 75.2926873 99.6826384 78.263516 100.674065 78.6034134 100.675206 78.6438367 102.950293 79.3845512 115.883926 83.823714 116.234378 83.7092762 116.584831 83.823714 129.519035 79.3845512 131.794121 78.6438367 131.794692 78.6034134 132.786689 78.263516"></polygon>
                    <path d="M101.197346,77.8527354 L103.234422,78.5148807 L115.891803,82.8595326 L115.950021,82.8407443 C116.135521,82.7798247 116.33472,82.7798247 116.519078,82.8407443 L116.577297,82.8595326 L131.28431,77.8493194 C131.349378,77.8026333 131.420724,77.7650567 131.496636,77.7394363 L131.87049,77.6107649 L131.87049,75.4222127 L126.659937,57.4691384 L105.809162,57.4691384 L100.598609,75.4222127 L100.598609,77.6107649 L100.972463,77.7394363 C101.053512,77.7667647 101.129425,77.80548 101.197346,77.8527354 M115.883812,84.7372239 C115.783356,84.7372239 115.682901,84.720713 115.58587,84.6876911 L100.390849,79.5140766 C100.300097,79.4833321 100.215623,79.4406314 100.140281,79.3871132 L99.3845827,79.1274931 C99.0141534,79.0005297 98.7658687,78.6532309 98.7658687,78.2632313 L98.7658687,75.292972 C98.7658687,75.2070013 98.7778549,75.1215999 98.802398,75.0384759 L104.240688,56.3008478 C104.353701,55.9097095 104.712714,55.6409799 105.120815,55.6409799 L127.348285,55.6409799 C127.756385,55.6409799 128.115399,55.9097095 128.228411,56.3008478 L133.666701,75.0384759 C133.691244,75.1215999 133.703231,75.2070013 133.703231,75.292972 L133.703231,78.2632313 C133.703231,78.6532309 133.454946,79.0005297 133.084517,79.1274931 L132.313407,79.3922373 C132.242061,79.4440475 132.163295,79.4861788 132.07825,79.5140766 L129.802593,80.2536524 L116.883229,84.6876911 C116.694875,84.7514575 116.489969,84.7543042 116.300473,84.6916765 L116.234835,84.6706108 L116.168626,84.6916765 C116.076161,84.722421 115.980272,84.7372239 115.883812,84.7372239" id="Fill-110" fill="#1F5081"></path>
                    <path d="M91.1410753,59.4494821 C91.1410753,59.4494821 95.5633961,64.9333882 103.150062,64.9333882 C105.20369,64.9333882 107.099786,64.7198848 108.784697,64.2467613 L108.800679,64.251316 L108.800679,64.2422065 C113.332016,62.9651715 116.284035,59.7518029 116.284035,53.3324672 C116.284035,49.2269391 112.916496,45.8678189 108.800679,45.8678189 C104.684861,45.8678189 101.317322,49.2269391 101.317322,53.3324672 C101.317322,53.7868025 101.365266,54.2303202 101.444033,54.6630205 C101.722568,60.9696264 96.0776593,60.61151 93.0268972,59.9624596 L91.1410753,59.4494821 Z" id="Fill-111" fill="#1C5C7C"></path>
                    <path d="M94.3651801,61.1136131 C96.3063666,62.5005312 99.3086133,64.0201061 103.149891,64.0201061 C105.180688,64.0201061 106.992881,63.8003399 108.536241,63.366501 C108.541378,63.3659316 108.548227,63.3636543 108.551652,63.3630849 C113.138354,62.069539 115.367779,58.7884186 115.367779,53.331841 C115.367779,49.720502 112.422039,46.7821259 108.801078,46.7821259 C105.179547,46.7821259 102.233806,49.720502 102.233806,53.331841 C102.233806,53.7041909 102.270335,54.0862197 102.345677,54.4984236 C102.353097,54.5394162 102.357663,54.5804089 102.359946,54.6225402 C102.462114,56.9443186 101.834268,58.6956158 100.49296,59.8274685 C98.8382994,61.2234961 96.4541958,61.3664011 94.3651801,61.1136131 M103.149891,65.8482646 C95.2156264,65.8482646 90.6186502,60.2601688 90.4268717,60.022753 C90.1780162,59.7141694 90.1568978,59.2803305 90.3743609,58.9489732 C90.591824,58.6170466 91.0010656,58.4661708 91.3817688,58.5680831 L93.2675906,59.0804913 C94.8086678,59.4067245 97.7161668,59.7756584 99.3091841,58.431441 C100.184173,57.6930038 100.595698,56.4586695 100.531201,54.7625984 C100.443303,54.2644238 100.401066,53.795855 100.401066,53.331841 C100.401066,48.712766 104.169285,44.9539674 108.801078,44.9539674 C113.4323,44.9539674 117.20052,48.712766 117.20052,53.331841 C117.20052,59.5934688 114.490507,63.5503986 109.144681,65.0944552 C109.078472,65.122353 109.008267,65.1417106 108.937492,65.1525281 C107.254293,65.6142648 105.307399,65.8482646 103.149891,65.8482646" id="Fill-112" fill="#1F5081"></path>
                    <path d="M141.94103,59.4494821 C141.94103,59.4494821 137.518709,64.9333882 129.932043,64.9333882 C127.878415,64.9333882 125.98232,64.7198848 124.297408,64.2467613 L124.281427,64.251316 L124.281427,64.2422065 C119.750089,62.9651715 116.79807,59.7518029 116.79807,53.3324672 C116.79807,49.2269391 120.165609,45.8678189 124.281427,45.8678189 C128.397245,45.8678189 131.764784,49.2269391 131.764784,53.3324672 C131.764784,53.7868025 131.716839,54.2303202 131.638073,54.6630205 C131.359537,60.9696264 137.004446,60.61151 140.055208,59.9624596 L141.94103,59.4494821 Z" id="Fill-113" fill="#1C5C7C"></path>
                    <path d="M124.534906,63.363882 C124.53833,63.3650207 124.542326,63.36559 124.54575,63.3667287 C126.089111,63.8005676 127.901303,64.0197645 129.9321,64.0197645 C133.776803,64.0197645 136.781332,62.4979122 138.721948,61.1098554 C136.615239,61.3660595 134.239697,61.2191691 132.589032,59.8271269 C131.248295,58.6952742 130.619877,56.943977 130.722045,54.622768 C130.724328,54.5806366 130.728894,54.539644 130.736314,54.4986513 C130.811656,54.0858781 130.848756,53.7038493 130.848756,53.3320687 C130.848756,49.7201604 127.902445,46.7817843 124.281484,46.7817843 C120.659953,46.7817843 117.714212,49.7201604 117.714212,53.3320687 C117.714212,58.7886464 119.943637,62.0697667 124.530339,63.3627433 C124.532052,63.3627433 124.533764,63.363882 124.534906,63.363882 M129.9321,65.8479229 C127.759752,65.8479229 125.800872,65.6105072 124.109112,65.143077 C124.060596,65.1339676 124.013222,65.1203033 123.966419,65.1037924 C118.601758,63.5654292 115.881472,59.6050834 115.881472,53.3320687 C115.881472,48.7124244 119.649691,44.9536258 124.281484,44.9536258 C128.912706,44.9536258 132.680926,48.7124244 132.680926,53.3320687 C132.680926,53.7960828 132.638689,54.2646516 132.55079,54.7628262 C132.486293,56.4588972 132.897818,57.6932316 133.772807,58.4310993 C135.365254,59.7764555 138.272753,59.4080909 139.863487,59.0687628 L141.700223,58.5677415 C142.082638,58.4663986 142.489597,58.6172743 142.70763,58.9492009 C142.925094,59.2799889 142.903975,59.7138278 142.65512,60.0229807 C142.463341,60.2603965 137.866365,65.8479229 129.9321,65.8479229" id="Fill-114" fill="#1F5081"></path>
                    <path d="M117.962325,50.0662068 L114.506888,50.0662068 C112.937272,50.0662068 111.653041,48.7851863 111.653041,47.2194947 L111.653041,43.7726957 C111.653041,42.2070041 112.937272,40.9259837 114.506888,40.9259837 L117.962325,40.9259837 C119.531941,40.9259837 120.816172,42.2070041 120.816172,43.7726957 L120.816172,47.2194947 C120.816172,48.7851863 119.531941,50.0662068 117.962325,50.0662068" id="Fill-115" fill="#C9C8B1"></path>
                    <path d="M116.234778,41.8395505 C114.213684,41.8395505 112.569297,43.4792567 112.569297,45.4958675 C112.569297,47.511909 114.213684,49.1516151 116.234778,49.1516151 C118.255872,49.1516151 119.900259,47.511909 119.900259,45.4958675 C119.900259,43.4792567 118.255872,41.8395505 116.234778,41.8395505 M116.234778,50.9797736 C113.202851,50.9797736 110.737128,48.519645 110.737128,45.4958675 C110.737128,42.4715206 113.202851,40.011392 116.234778,40.011392 C119.266705,40.011392 121.732428,42.4715206 121.732428,45.4958675 C121.732428,48.519645 119.266705,50.9797736 116.234778,50.9797736" id="Fill-116" fill="#1F5081"></path>
                    <path d="M137.303472,42.3875995 C137.110552,42.3875995 136.91592,42.3266799 136.749826,42.2008552 L134.216752,40.2821713 C133.813789,39.9764344 133.735022,39.4036759 134.041526,39.0017202 C134.348029,38.5991951 134.921652,38.5206259 135.325186,38.8269321 L137.858831,40.7461853 C138.261223,41.0513529 138.339989,41.6246807 138.034057,42.0260671 C137.853694,42.2634829 137.580295,42.3875995 137.303472,42.3875995" id="Fill-117" fill="#1F5081"></path>
                    <path d="M95.3700766,42.3875995 C95.0932534,42.3875995 94.8198549,42.2634829 94.6394918,42.0260671 C94.3335595,41.6246807 94.4123256,41.0513529 94.814718,40.7461853 L97.3483631,38.8269321 C97.7524678,38.5200565 98.3266617,38.5986258 98.6320233,39.0017202 C98.9385265,39.4036759 98.8597603,39.9764344 98.4567971,40.2821713 L95.9237228,42.2008552 C95.7576289,42.3266799 95.5629966,42.3875995 95.3700766,42.3875995" id="Fill-118" fill="#1F5081"></path>
                    <path d="M35.5603565,40.559498 C35.5603565,42.8864004 33.6693977,44.7726318 31.3366634,44.7726318 C29.0033584,44.7726318 27.1123996,42.8864004 27.1123996,40.559498 C27.1123996,38.2325955 29.0033584,36.3463641 31.3366634,36.3463641 C33.6693977,36.3463641 35.5603565,38.2325955 35.5603565,40.559498" id="Fill-119" fill="#C9C8B1"></path>
                    <path d="M31.3362639,37.2604434 C29.5126559,37.2604434 28.0286556,38.7401643 28.0286556,40.5597826 C28.0286556,42.3788316 29.5126559,43.8585526 31.3362639,43.8585526 C33.1604427,43.8585526 34.6438722,42.3788316 34.6438722,40.5597826 C34.6438722,38.7401643 33.1604427,37.2604434 31.3362639,37.2604434 M31.3362639,45.6867111 C28.5018234,45.6867111 26.196486,43.3865677 26.196486,40.5597826 C26.196486,37.7324282 28.5018234,35.4322849 31.3362639,35.4322849 C34.1707044,35.4322849 36.4766125,37.7324282 36.4766125,40.5597826 C36.4766125,43.3865677 34.1707044,45.6867111 31.3362639,45.6867111" id="Fill-120" fill="#1F5081"></path>
                    <path d="M58.9933487,70.2655077 C58.9996271,70.0218291 59.0116133,69.7798586 59.0116133,69.534472 C59.0116133,54.5419783 46.8274003,42.3876565 31.7967606,42.3876565 C16.7661209,42.3876565 4.58133715,54.5419783 4.58133715,69.534472 C4.58133715,69.7798586 4.59389407,70.0218291 4.60017254,70.2655077 L58.9933487,70.2655077 Z" id="Fill-121" fill="#C9C8B1"></path>
                    <path d="M5.49850639,69.3515423 L58.0954714,69.3515423 C57.9961576,54.9705223 46.2365969,43.3018496 31.7967035,43.3018496 C17.3568101,43.3018496 5.59724949,54.9705223 5.49850639,69.3515423 M58.9932916,71.1797008 L4.60011546,71.1797008 C4.10297537,71.1797008 3.6965876,70.7840078 3.68403068,70.2886799 L3.67718144,70.0586656 C3.67147375,69.8844468 3.66519529,69.710228 3.66519529,69.5343012 C3.66519529,54.0618518 16.2849053,41.4736911 31.7967035,41.4736911 C47.3085018,41.4736911 59.9282118,54.0618518 59.9282118,69.5343012 C59.9282118,69.7147827 59.9225041,69.8935563 59.9162256,70.0717604 L59.9093764,70.2903879 C59.8956779,70.7857158 59.4892901,71.1797008 58.9932916,71.1797008" id="Fill-122" fill="#1F5081"></path>
                </g>
            </g>
        </g>
    </g>
</svg>